Project1
…
This table shows the number of unique values in the name column, which contains the county names. It contains 254 counties, the total number of counties in the state of Texas.

\(~\)

maxAreas <- areaVax %>% group_by(Name) %>% summarize(totalArea = max(Area.miles), elevationRank = max(Rank.elevation)) %>% arrange(-totalArea)

## `summarise()` ungrouping output (override with `.groups` argument)

maxAreas

## # A tibble: 254 x 3
##    Name      totalArea elevationRank
##    <chr>         <dbl>         <dbl>
##  1 BREWSTER      6192.             4
##  2 PECOS         4765.            38
##  3 HUDSPETH      4572.             3
##  4 PRESIDIO      3856.             2
##  5 CULBERSON     3813              6
##  6 WEBB          3376.           176
##  7 VAL VERDE     3233.           124
##  8 CROCKETT      2807.            64
##  9 REEVES        2642.            52
## 10 TERRELL       2358.            42
## # … with 244 more rows
…
## # A tibble: 1 x 2
##   `max(Rank.elevation)` `max(Rank.area)`
##                   <dbl>            <dbl>
## 1                   254              254

This shows the maximum values for the area and elevation ranks.

\(~\)

areaVax %>% group_by(Name) %>% summarize(VaccinationRate = mean(Percent.vaccinated), max(Rank.area)) %>% arrange(VaccinationRate)

## `summarise()` ungrouping output (override with `.groups` argument)

## # A tibble: 254 x 3
##    Name       VaccinationRate `max(Rank.area)`
##    <chr>                <dbl>            <dbl>
##  1 COKE                  87.7              116
##  2 KING                  87.8              141
##  3 GAINES                89.4               22
##  4 SHERMAN               90.6              121
##  5 LIPSCOMB              91.1              111
##  6 HALL                  93.6              153
##  7 MONTAGUE              94.1              105
##  8 JACK                  94.1              129
##  9 GILLESPIE             94.1               67
## 10 JEFF DAVIS            94.4               11
## # … with 244 more rows
…
